C:\Users\Acer\Documents\backup\SpringRestMySQL\src\main\java\com\javasampleapproach\springrest\mysql\repo\UserRepo.java
C:\Users\Acer\Documents\backup\SpringRestMySQL\src\main\java\com\javasampleapproach\springrest\mysql\repo\DossjugRepo.java
C:\Users\Acer\Documents\backup\SpringRestMySQL\src\main\java\com\javasampleapproach\springrest\mysql\controller\UserController.java
C:\Users\Acer\Documents\backup\SpringRestMySQL\src\main\java\com\javasampleapproach\springrest\mysql\controller\CustomerController.java
C:\Users\Acer\Documents\backup\SpringRestMySQL\src\main\java\com\javasampleapproach\springrest\mysql\controller\LiquidationDossController.java
C:\Users\Acer\Documents\backup\SpringRestMySQL\src\main\java\com\javasampleapproach\springrest\mysql\repo\HuisRepo.java
C:\Users\Acer\Documents\backup\SpringRestMySQL\src\main\java\com\javasampleapproach\springrest\mysql\Service\Dossjug_service.java
C:\Users\Acer\Documents\backup\SpringRestMySQL\src\main\java\com\javasampleapproach\springrest\mysql\Service\huiss_service.java
C:\Users\Acer\Documents\backup\SpringRestMySQL\src\main\java\com\javasampleapproach\springrest\mysql\model\AssCle.java
C:\Users\Acer\Documents\backup\SpringRestMySQL\src\main\java\com\javasampleapproach\springrest\mysql\Service\EtatDoss_service.java
C:\Users\Acer\Documents\backup\SpringRestMySQL\src\main\java\com\javasampleapproach\springrest\mysql\Service\LiquidDoss_service.java
C:\Users\Acer\Documents\backup\SpringRestMySQL\src\main\java\com\javasampleapproach\springrest\mysql\controller\LoginController.java
C:\Users\Acer\Documents\backup\SpringRestMySQL\src\main\java\com\javasampleapproach\springrest\mysql\repo\AssureServiceInter.java
C:\Users\Acer\Documents\backup\SpringRestMySQL\src\main\java\com\javasampleapproach\springrest\mysql\controller\AssController.java
C:\Users\Acer\Documents\backup\SpringRestMySQL\src\main\java\com\javasampleapproach\springrest\mysql\model\CreationDossier.java
C:\Users\Acer\Documents\backup\SpringRestMySQL\src\main\java\com\javasampleapproach\springrest\mysql\repo\EtatDossRepo.java
C:\Users\Acer\Documents\backup\SpringRestMySQL\src\main\java\com\javasampleapproach\springrest\mysql\model\Ass.java
C:\Users\Acer\Documents\backup\SpringRestMySQL\src\main\java\com\javasampleapproach\springrest\mysql\Service\LoginService.java
C:\Users\Acer\Documents\backup\SpringRestMySQL\src\main\java\com\javasampleapproach\springrest\mysql\Service\ass_service.java
C:\Users\Acer\Documents\backup\SpringRestMySQL\src\main\java\com\javasampleapproach\springrest\mysql\controller\HuissController.java
C:\Users\Acer\Documents\backup\SpringRestMySQL\src\main\java\com\javasampleapproach\springrest\mysql\repo\LiquidDossRepo.java
C:\Users\Acer\Documents\backup\SpringRestMySQL\src\main\java\com\javasampleapproach\springrest\mysql\model\Customer.java
C:\Users\Acer\Documents\backup\SpringRestMySQL\src\main\java\com\javasampleapproach\springrest\mysql\model\huissier.java
C:\Users\Acer\Documents\backup\SpringRestMySQL\src\main\java\com\javasampleapproach\springrest\mysql\model\login.java
C:\Users\Acer\Documents\backup\SpringRestMySQL\src\main\java\com\javasampleapproach\springrest\mysql\repo\LoginRepo.java
C:\Users\Acer\Documents\backup\SpringRestMySQL\src\main\java\com\javasampleapproach\springrest\mysql\model\huissier_pk.java
C:\Users\Acer\Documents\backup\SpringRestMySQL\src\main\java\com\javasampleapproach\springrest\mysql\repo\AssRepo.java
C:\Users\Acer\Documents\backup\SpringRestMySQL\src\main\java\com\javasampleapproach\springrest\mysql\repo\CustomerRepository.java
C:\Users\Acer\Documents\backup\SpringRestMySQL\src\main\java\com\javasampleapproach\springrest\mysql\controller\DossjugController.java
C:\Users\Acer\Documents\backup\SpringRestMySQL\src\main\java\com\javasampleapproach\springrest\mysql\controller\tribunalController.java
C:\Users\Acer\Documents\backup\SpringRestMySQL\src\main\java\com\javasampleapproach\springrest\mysql\repo\tribunalRepo.java
C:\Users\Acer\Documents\backup\SpringRestMySQL\src\main\java\com\javasampleapproach\springrest\mysql\controller\EtatDossController.java
C:\Users\Acer\Documents\backup\SpringRestMySQL\src\main\java\com\javasampleapproach\springrest\mysql\model\Jugement_PK.java
C:\Users\Acer\Documents\backup\SpringRestMySQL\src\main\java\com\javasampleapproach\springrest\mysql\model\EtatDoss.java
C:\Users\Acer\Documents\backup\SpringRestMySQL\src\main\java\com\javasampleapproach\springrest\mysql\model\LiquidDoss.java
C:\Users\Acer\Documents\backup\SpringRestMySQL\src\main\java\com\javasampleapproach\springrest\mysql\model\LiquidDoss_PK.java
C:\Users\Acer\Documents\backup\SpringRestMySQL\src\main\java\com\javasampleapproach\springrest\mysql\model\EtatDossPk.java
C:\Users\Acer\Documents\backup\SpringRestMySQL\src\main\java\com\javasampleapproach\springrest\mysql\model\tribunal.java
C:\Users\Acer\Documents\backup\SpringRestMySQL\src\main\java\com\javasampleapproach\springrest\mysql\model\DossierJugement.java
C:\Users\Acer\Documents\backup\SpringRestMySQL\src\main\java\com\javasampleapproach\springrest\mysql\SpringRestMySqlApplication.java
C:\Users\Acer\Documents\backup\SpringRestMySQL\src\main\java\com\javasampleapproach\springrest\mysql\model\LoginPk.java
C:\Users\Acer\Documents\backup\SpringRestMySQL\src\main\java\com\javasampleapproach\springrest\mysql\controller\CrosConfig.java
C:\Users\Acer\Documents\backup\SpringRestMySQL\src\main\java\com\javasampleapproach\springrest\mysql\model\User.java
